{"hash":"40d5a017cb271761700a8ea3fe775477dafeabda","data":{"tag":{"title":"jstips","belongsTo":{"totalCount":11,"pageInfo":{"totalPages":3,"currentPage":1},"edges":[{"node":{"title":"Remove all Children of an DOM Node in JavaScript","timeToRead":2,"date":"June 26, 2020","path":"/remove-child","summary":"Learn how to remove all children of a DOM Node in JavaScript.","tags":[{"title":"JavaScript"},{"title":"DOM"},{"title":"jstips"}]}},{"node":{"title":"Replacing Switch statement with objects","timeToRead":1,"date":"June 26, 2020","path":"/better-switch-statements","summary":"Learn how to use objects Instead of switch statement in JavaScript","tags":[{"title":"JavaScript"},{"title":"jstips"}]}},{"node":{"title":"Random Hex Colour Generator in JavaScript","timeToRead":1,"date":"June 26, 2020","path":"/random-colour","summary":"Learn how to generate random hex colour in JavaScript","tags":[{"title":"JavaScript"},{"title":"jstips"}]}},{"node":{"title":"Remove last character of String in JavaScript","timeToRead":1,"date":"June 26, 2020","path":"/remove-last-char","summary":"Learn how to remove last character of string in JavaScript","tags":[{"title":"JavaScript"},{"title":"jstips"}]}},{"node":{"title":"Inserting elements in JavaScript Array","timeToRead":2,"date":"June 20, 2020","path":"/array-insert","summary":"Learn how to insert an element at specific index of an element","tags":[{"title":"JavaScript"},{"title":"jstips"},{"title":"array"}]}}]}}},"context":{}}