{"hash":"2736af772067c8496bc3bd4753210b01f820adcb","data":{"tag":{"title":"jstips","belongsTo":{"totalCount":12,"pageInfo":{"totalPages":3,"currentPage":2},"edges":[{"node":{"title":"Difference between append and appendChild method","timeToRead":1,"date":"June 20, 2020","path":"/append-vs-appendChild-js","summary":"Learn how append method is different from appendChild","tags":[{"title":"JavaScript"},{"title":"jstips"},{"title":"DOM"}]}},{"node":{"title":"Inserting elements in JavaScript Array","timeToRead":2,"date":"June 20, 2020","path":"/array-insert","summary":"Learn how to insert an element at specific index of an element","tags":[{"title":"JavaScript"},{"title":"jstips"},{"title":"array"}]}},{"node":{"title":"Creating Browser Notification in JavaScript","timeToRead":2,"date":"May 29, 2020","path":"/js-notification","summary":"Learn how to create browser notification in JavaScript.","tags":[{"title":"JavaScript"},{"title":"jstips"},{"title":"HTML5"}]}},{"node":{"title":"Everything about the audio tag in HTML and JavaScript","timeToRead":4,"date":"May 28, 2020","path":"/html-audio","summary":"In this article you will learn how to play, pause, stop, rewind, fast forward, audio using JavaScript and HTML","tags":[{"title":"JavaScript"},{"title":"audio"},{"title":"jstips"},{"title":"HTML5"}]}},{"node":{"title":"Alert, prompt, confirm in JavaScript","timeToRead":2,"date":"May 28, 2020","path":"/alert-js","summary":"Learn the three basic user interactions in JavaScript.","tags":[{"title":"JavaScript"},{"title":"arguments"},{"title":"jstips"},{"title":"ui"}]}}]}}},"context":{}}