{"hash":"40d5a017cb271761700a8ea3fe775477dafeabda","data":{"tag":{"title":"jstips","belongsTo":{"totalCount":11,"pageInfo":{"totalPages":3,"currentPage":3},"edges":[{"node":{"title":"8 ways to use the Spread operator in JavaScript","timeToRead":2,"date":"May 27, 2020","path":"/spread-operator","summary":"Spread operator expands an iterable objects into its individual element. An iterable object is anything that you can loop over with our for of loop .","tags":[{"title":"Js"},{"title":"ES6"},{"title":"jstips"},{"title":"programming"},{"title":"JavaScript"}]}}]}}},"context":{}}