{"hash":"db08af0d0585ff8827d445cb9138a98591e815c3","data":{"tag":{"title":"JavaScript","belongsTo":{"totalCount":21,"pageInfo":{"totalPages":5,"currentPage":3},"edges":[{"node":{"title":"Handling Attributes of DOM element in JavaScript","timeToRead":1,"date":"June 20, 2020","path":"/dom-attribute","summary":"Learn how to set , get, check and remove attribute to a DOM element in JavaScript","tags":[{"title":"DOM"},{"title":"JavaScript"}]}},{"node":{"title":"Remove a DOM Element in JavaScript","timeToRead":1,"date":"June 20, 2020","path":"/dom-remove","summary":"Learn how to remove DOM Element","tags":[{"title":"JavaScript"},{"title":"DOM"}]}},{"node":{"title":"Detect network online/offline State using JavaScript","timeToRead":1,"date":"June 20, 2020","path":"/js-online-state","summary":"","tags":[{"title":"JavaScript"},{"title":"jstip"}]}},{"node":{"title":"Add confirm box before user leave your page","timeToRead":1,"date":"June 6, 2020","path":"/js-beforeunload","summary":"Learn How to display a confirm  box on closing a tab, using JavaScript","tags":[{"title":"Js"},{"title":"events"},{"title":"programming"},{"title":"JavaScript"}]}},{"node":{"title":"3 Way to use Array Slice","timeToRead":2,"date":"May 29, 2020","path":"/array-slice-methods","summary":"Three ways to use Array slice method in JavaScript","tags":[{"title":"Js"},{"title":"ES6"},{"title":"array"},{"title":"programming"},{"title":"JavaScript"}]}}]}}},"context":{}}