{"hash":"40d5a017cb271761700a8ea3fe775477dafeabda","data":{"tag":{"title":"DOM","belongsTo":{"totalCount":6,"pageInfo":{"totalPages":2,"currentPage":2},"edges":[{"node":{"title":"Remove a DOM Element in JavaScript","timeToRead":1,"date":"June 20, 2020","path":"/dom-remove","summary":"Learn how to remove DOM Element","tags":[{"title":"JavaScript"},{"title":"DOM"}]}}]}}},"context":{}}