{"hash":"2736af772067c8496bc3bd4753210b01f820adcb","data":{"posts":{"totalCount":31,"pageInfo":{"totalPages":3,"currentPage":1},"edges":[{"node":{"id":"d0c1d28e2f04a6c5198adcd99a79e1c4","title":"Console cheat sheet for JavaScript developers","date":"June 27, 2020","summary":"Learn how to use the browser console effectively for debugging","timeToRead":3,"path":"/console-cheatsheet"}},{"node":{"id":"70dae67a2228844ccf3ccd548d19116f","title":"Learn how to load script in HTML","date":"June 27, 2020","summary":"Learn different ways to load the script tag effectively in JavaScript","timeToRead":4,"path":"/load-script"}},{"node":{"id":"566fbce33a1fb9e8545e84ca5bfd42ca","title":"Find the difference between Dates in JavaScript","date":"June 27, 2020","summary":"Learn how to find difference between two dates in JavaScript.","timeToRead":3,"path":"/date-diff-js"}},{"node":{"id":"3ba9450b5f4df61ebc7311a1be496e3e","title":"Insert a node after another element in JavaScript","date":"June 27, 2020","summary":"Learn how to use insert set of node to the","timeToRead":1,"path":"/dom-after"}},{"node":{"id":"e41e1bb793820e54cfcd59211f148b34","title":"Renaming Git Branch","date":"June 26, 2020","summary":"Learn how to how to rename the git branch using terminal","timeToRead":1,"path":"/rename-gitbranch"}},{"node":{"id":"9b585fb1620142821c8e1b6c4dbe46bf","title":"Remove last character of String in JavaScript","date":"June 26, 2020","summary":"Learn how to remove last character of string in JavaScript","timeToRead":1,"path":"/remove-last-char"}},{"node":{"id":"27927988257cf93baf172512043f6a2a","title":"Random Hex Colour Generator in JavaScript","date":"June 26, 2020","summary":"Learn how to generate random hex colour in JavaScript","timeToRead":1,"path":"/random-colour"}},{"node":{"id":"e2e872fcd7aea2d0196fc349640abe92","title":"Convert Object to HTML table in JavaScript","date":"June 26, 2020","summary":"Learn how to convert object into table in JavaScript","timeToRead":2,"path":"/object-to-table"}},{"node":{"id":"febb64300a6480bc5a2420c20802d8af","title":"Replacing Switch statement with objects","date":"June 26, 2020","summary":"Learn how to use objects Instead of switch statement in JavaScript","timeToRead":1,"path":"/better-switch-statements"}},{"node":{"id":"f6c3cfd3fc98864846b2f90611558900","title":"Remove all Children of an DOM Node in JavaScript","date":"June 26, 2020","summary":"Learn how to remove all children of a DOM Node in JavaScript.","timeToRead":2,"path":"/remove-child"}},{"node":{"id":"4e562ac1f1d8190edbc3b812001f08c3","title":"Implement and, or logical function in JavaScript","date":"June 21, 2020","summary":"Learn how to implement and, or logical function in JavaScript","timeToRead":1,"path":"/and-or-js"}},{"node":{"id":"4b35c51f5a7eb0e38cf4f0916027d22d","title":"Detect network online/offline State using JavaScript","date":"June 20, 2020","summary":"","timeToRead":1,"path":"/js-online-state"}},{"node":{"id":"b06786bf33406839ca8de7540c590253","title":"Remove a DOM Element in JavaScript","date":"June 20, 2020","summary":"Learn how to remove DOM Element","timeToRead":1,"path":"/dom-remove"}},{"node":{"id":"72ad6257f32b216170bdf315f1c74db6","title":"One-Time Event Listener in JavaScript","date":"June 20, 2020","summary":"Learn how to create a event listener which will listen for the event only once","timeToRead":1,"path":"/dom-one-event"}},{"node":{"id":"ffa988025f74e46c693163d29a187e70","title":"Handling classes of DOM Element in JavaScript","date":"June 20, 2020","summary":"Learn how to add remove, toggle , check classes of DOM element in JavaScript","timeToRead":2,"path":"/dom-classList"}}]}},"context":{}}