{"hash":"db08af0d0585ff8827d445cb9138a98591e815c3","data":{"tag":{"title":"JavaScript","belongsTo":{"totalCount":21,"pageInfo":{"totalPages":5,"currentPage":4},"edges":[{"node":{"title":"Creating Browser Notification in JavaScript","timeToRead":2,"date":"May 29, 2020","path":"/js-notification","summary":"Learn how to create browser notification in JavaScript.","tags":[{"title":"JavaScript"},{"title":"jstips"},{"title":"HTML5"}]}},{"node":{"title":"Alert, prompt, confirm in JavaScript","timeToRead":2,"date":"May 28, 2020","path":"/alert-js","summary":"Learn the three basic user interactions in JavaScript.","tags":[{"title":"JavaScript"},{"title":"arguments"},{"title":"jstips"},{"title":"ui"}]}},{"node":{"title":"Everything about the audio tag in HTML and JavaScript","timeToRead":4,"date":"May 28, 2020","path":"/html-audio","summary":"In this article you will learn how to play, pause, stop, rewind, fast forward, audio using JavaScript and HTML","tags":[{"title":"JavaScript"},{"title":"audio"},{"title":"jstips"},{"title":"HTML5"}]}},{"node":{"title":"Function arguments","timeToRead":2,"date":"May 28, 2020","path":"/function-arguments","summary":"Learn about how to use arguments objects inside function in JavaScript","tags":[{"title":"JavaScript"},{"title":"arguments"},{"title":"jstips"},{"title":"HTML5"}]}},{"node":{"title":"Replace String Concatenation using Template Literals in JavaScript","timeToRead":2,"date":"May 28, 2020","path":"/template-literal","summary":"Template Literals allows you to embed javascript expression inside the string and call functions using Tagged template literal","tags":[{"title":"String"},{"title":"js"},{"title":"es6"},{"title":"JavaScript"}]}}]}}},"context":{}}