{"hash":"2736af772067c8496bc3bd4753210b01f820adcb","data":{"tag":{"title":"JavaScript","belongsTo":{"totalCount":26,"pageInfo":{"totalPages":6,"currentPage":6},"edges":[{"node":{"title":"8 ways to use the Spread operator in JavaScript","timeToRead":2,"date":"May 27, 2020","path":"/spread-operator","summary":"Spread operator expands an iterable objects into its individual element. An iterable object is anything that you can loop over with our for of loop .","tags":[{"title":"Js"},{"title":"ES6"},{"title":"jstips"},{"title":"programming"},{"title":"JavaScript"}]}}]}}},"context":{}}