{"hash":"590aecd25315f57ebc1243f3c47e29d3b136ace5","data":{"tag":{"title":"DOM","belongsTo":{"totalCount":6,"pageInfo":{"totalPages":2,"currentPage":1},"edges":[{"node":{"title":"Insert a node after another element in JavaScript","timeToRead":1,"date":"June 27, 2020","path":"/dom-after","summary":"Learn how to use insert set of node to the","tags":[{"title":"DOM"},{"title":"JavaScript"}]}},{"node":{"title":"Remove all Children of an DOM Node in JavaScript","timeToRead":2,"date":"June 26, 2020","path":"/remove-child","summary":"Learn how to remove all children of a DOM Node in JavaScript.","tags":[{"title":"JavaScript"},{"title":"DOM"},{"title":"jstips"}]}},{"node":{"title":"Difference between append and appendChild method","timeToRead":1,"date":"June 20, 2020","path":"/append-vs-appendChild-js","summary":"Learn how append method is different from appendChild","tags":[{"title":"JavaScript"},{"title":"jstips"},{"title":"DOM"}]}},{"node":{"title":"Handling Attributes of DOM element in JavaScript","timeToRead":1,"date":"June 20, 2020","path":"/dom-attribute","summary":"Learn how to set , get, check and remove attribute to a DOM element in JavaScript","tags":[{"title":"DOM"},{"title":"JavaScript"}]}},{"node":{"title":"Handling classes of DOM Element in JavaScript","timeToRead":2,"date":"June 20, 2020","path":"/dom-classList","summary":"Learn how to add remove, toggle , check classes of DOM element in JavaScript","tags":[{"title":"JavaScript"},{"title":"DOM"},{"title":"classList"}]}}]}}},"context":{}}