{"hash":"2736af772067c8496bc3bd4753210b01f820adcb","data":{"posts":{"totalCount":31,"pageInfo":{"totalPages":3,"currentPage":3},"edges":[{"node":{"id":"81a2d36ef7bf4e82bca648e1e4925b8c","title":"8 ways to use the Spread operator in JavaScript","date":"May 27, 2020","summary":"Spread operator expands an iterable objects into its individual element. An iterable object is anything that you can loop over with our for of loop .","timeToRead":2,"path":"/spread-operator"}}]}},"context":{}}