{"hash":"2736af772067c8496bc3bd4753210b01f820adcb","data":{"posts":{"totalCount":31,"pageInfo":{"totalPages":3,"currentPage":2},"edges":[{"node":{"id":"1545372103a138b60986903e3ef240ac","title":"Handling Attributes of DOM element in JavaScript","date":"June 20, 2020","summary":"Learn how to set , get, check and remove attribute to a DOM element in JavaScript","timeToRead":1,"path":"/dom-attribute"}},{"node":{"id":"f2709b45837be96d7c7bff3b18eb217a","title":"Asynchronous Image Loading in JavaScript","date":"June 20, 2020","summary":"Learn different ways to load images asynchronously","timeToRead":3,"path":"/js-async-image"}},{"node":{"id":"de74d2ade34f6eb140cf9a0a5f26c724","title":"Inserting elements in JavaScript Array","date":"June 20, 2020","summary":"Learn how to insert an element at specific index of an element","timeToRead":2,"path":"/array-insert"}},{"node":{"id":"40d7b37ddc7b5a2b59f30ab0708f9de1","title":"Difference between append and appendChild method","date":"June 20, 2020","summary":"Learn how append method is different from appendChild","timeToRead":1,"path":"/append-vs-appendChild-js"}},{"node":{"id":"c426776eff9011334ddf6db302d42114","title":"Generate ASCII art from the image","date":"June 6, 2020","summary":"Learn how to Generate ASCII art from the image using Python","timeToRead":2,"path":"/python-ascii-generator"}},{"node":{"id":"acadef115351377be55d221a8d8e35eb","title":"Add confirm box before user leave your page","date":"June 6, 2020","summary":"Learn How to display a confirm  box on closing a tab, using JavaScript","timeToRead":1,"path":"/js-beforeunload"}},{"node":{"id":"1cc1e6650a0b8a5ecb55c2708796abcd","title":"Remove Un-Tracked files in Git","date":"May 30, 2020","summary":"Learn Different ways to remove Untracked files in JavaScript","timeToRead":1,"path":"/git-untracked"}},{"node":{"id":"5304b6d406d431c6cf8d05dc1d550329","title":"Creating Browser Notification in JavaScript","date":"May 29, 2020","summary":"Learn how to create browser notification in JavaScript.","timeToRead":2,"path":"/js-notification"}},{"node":{"id":"9ea0971b0b77afdeed2f899373bec67e","title":"Add new columns to table in PostgreSQL","date":"May 29, 2020","summary":"Learn how to add new columns to the table in PostgreSQL.","timeToRead":1,"path":"/add-column-postgreSQL"}},{"node":{"id":"2ae661b7e73327c0c070e4b27686a39d","title":"3 Way to use Array Slice","date":"May 29, 2020","summary":"Three ways to use Array slice method in JavaScript","timeToRead":2,"path":"/array-slice-methods"}},{"node":{"id":"bcce20d8011f2a4163ee56c8ac252fa3","title":"Function arguments","date":"May 28, 2020","summary":"Learn about how to use arguments objects inside function in JavaScript","timeToRead":2,"path":"/function-arguments"}},{"node":{"id":"e4ec4c577552e24f72ecaac2b2b387af","title":"Alert, prompt, confirm in JavaScript","date":"May 28, 2020","summary":"Learn the three basic user interactions in JavaScript.","timeToRead":2,"path":"/alert-js"}},{"node":{"id":"d404ef29d7afa4b1100d24bc0dfdf9b4","title":"Replace String Concatenation using Template Literals in JavaScript","date":"May 28, 2020","summary":"Template Literals allows you to embed javascript expression inside the string and call functions using Tagged template literal","timeToRead":2,"path":"/template-literal"}},{"node":{"id":"849086d55add77507702cedb1c1b0b25","title":"Everything about the audio tag in HTML and JavaScript","date":"May 28, 2020","summary":"In this article you will learn how to play, pause, stop, rewind, fast forward, audio using JavaScript and HTML","timeToRead":4,"path":"/html-audio"}},{"node":{"id":"ac19ccb82876f662787d12cde6f9d32b","title":"Impress Your Friends With These Fun and Useful Mac Terminal Commands","date":"May 28, 2020","summary":"Learn how to Display the weather, shut down your computer, and more, all from your terminal.","timeToRead":3,"path":"/mac-tricks"}}]}},"context":{}}