{"hash":"2736af772067c8496bc3bd4753210b01f820adcb","data":{"tag":{"title":"JavaScript","belongsTo":{"totalCount":26,"pageInfo":{"totalPages":6,"currentPage":2},"edges":[{"node":{"title":"Replacing Switch statement with objects","timeToRead":1,"date":"June 26, 2020","path":"/better-switch-statements","summary":"Learn how to use objects Instead of switch statement in JavaScript","tags":[{"title":"JavaScript"},{"title":"jstips"}]}},{"node":{"title":"Convert Object to HTML table in JavaScript","timeToRead":2,"date":"June 26, 2020","path":"/object-to-table","summary":"Learn how to convert object into table in JavaScript","tags":[{"title":"objects"},{"title":"JavaScript"}]}},{"node":{"title":"Random Hex Colour Generator in JavaScript","timeToRead":1,"date":"June 26, 2020","path":"/random-colour","summary":"Learn how to generate random hex colour in JavaScript","tags":[{"title":"JavaScript"},{"title":"jstips"}]}},{"node":{"title":"Remove last character of String in JavaScript","timeToRead":1,"date":"June 26, 2020","path":"/remove-last-char","summary":"Learn how to remove last character of string in JavaScript","tags":[{"title":"JavaScript"},{"title":"jstips"}]}},{"node":{"title":"Implement and, or logical function in JavaScript","timeToRead":1,"date":"June 21, 2020","path":"/and-or-js","summary":"Learn how to implement and, or logical function in JavaScript","tags":[{"title":"JavaScript"},{"title":"interview"}]}}]}}},"context":{}}