{"hash":"40d5a017cb271761700a8ea3fe775477dafeabda","data":{"tag":{"title":"JavaScript","belongsTo":{"totalCount":22,"pageInfo":{"totalPages":5,"currentPage":5},"edges":[{"node":{"title":"Alert, prompt, confirm in JavaScript","timeToRead":2,"date":"May 28, 2020","path":"/alert-js","summary":"Learn the three basic user interactions in JavaScript.","tags":[{"title":"JavaScript"},{"title":"arguments"},{"title":"jstips"},{"title":"ui"}]}},{"node":{"title":"8 ways to use the Spread operator in JavaScript","timeToRead":2,"date":"May 27, 2020","path":"/spread-operator","summary":"Spread operator expands an iterable objects into its individual element. An iterable object is anything that you can loop over with our for of loop .","tags":[{"title":"Js"},{"title":"ES6"},{"title":"jstips"},{"title":"programming"},{"title":"JavaScript"}]}}]}}},"context":{}}