{"hash":"590aecd25315f57ebc1243f3c47e29d3b136ace5","data":{"tag":{"title":"JavaScript","belongsTo":{"totalCount":19,"pageInfo":{"totalPages":4,"currentPage":1},"edges":[{"node":{"title":"Insert a node after another element in JavaScript","timeToRead":1,"date":"June 27, 2020","path":"/dom-after","summary":"Learn how to use insert set of node to the","tags":[{"title":"DOM"},{"title":"JavaScript"}]}},{"node":{"title":"Remove all Children of an DOM Node in JavaScript","timeToRead":2,"date":"June 26, 2020","path":"/remove-child","summary":"Learn how to remove all children of a DOM Node in JavaScript.","tags":[{"title":"JavaScript"},{"title":"DOM"},{"title":"jstips"}]}},{"node":{"title":"Implement and, or logical function in JavaScript","timeToRead":1,"date":"June 21, 2020","path":"/and-or-js","summary":"Learn how to implement and, or logical function in JavaScript","tags":[{"title":"JavaScript"},{"title":"interview"}]}},{"node":{"title":"Inserting elements in JavaScript Array","timeToRead":2,"date":"June 20, 2020","path":"/array-insert","summary":"Learn how to insert an element at specific index of an element","tags":[{"title":"JavaScript"},{"title":"jstips"},{"title":"array"}]}},{"node":{"title":"Asynchronous Image Loading in JavaScript","timeToRead":3,"date":"June 20, 2020","path":"/js-async-image","summary":"Learn different ways to load images asynchronously","tags":[{"title":"JavaScript"},{"title":"performance"},{"title":"image"}]}}]}}},"context":{}}