{"hash":"2c423bfc782bba6438d3eac67941d0ef7fa2e6ef","data":{"posts":{"totalCount":20,"pageInfo":{"totalPages":2,"currentPage":1},"edges":[{"node":{"id":"3ba9450b5f4df61ebc7311a1be496e3e","title":"Insert a node after another element in JavaScript","date":"June 27, 2020","summary":"Learn how to use insert set of node to the","timeToRead":1,"path":"/dom-after"}},{"node":{"id":"f6c3cfd3fc98864846b2f90611558900","title":"Remove all Children of an DOM Node in JavaScript","date":"June 26, 2020","summary":"Learn how to remove all children of a DOM Node in JavaScript.","timeToRead":2,"path":"/remove-child"}},{"node":{"id":"4b35c51f5a7eb0e38cf4f0916027d22d","title":"Detect network online/offline State using JavaScript","date":"June 20, 2020","summary":"","timeToRead":1,"path":"/js-online-state"}},{"node":{"id":"b06786bf33406839ca8de7540c590253","title":"Remove a DOM Element in JavaScript","date":"June 20, 2020","summary":"Learn how to remove DOM Element","timeToRead":1,"path":"/dom-remove"}},{"node":{"id":"72ad6257f32b216170bdf315f1c74db6","title":"One-Time Event Listener in JavaScript","date":"June 20, 2020","summary":"Learn how to create a event listener which will listen for the event only once","timeToRead":1,"path":"/dom-one-event"}},{"node":{"id":"1545372103a138b60986903e3ef240ac","title":"Handling Attributes of DOM element in JavaScript","date":"June 20, 2020","summary":"Learn how to set , get, check and remove attribute to a DOM element in JavaScript","timeToRead":1,"path":"/dom-attribute"}},{"node":{"id":"ffa988025f74e46c693163d29a187e70","title":"Handling classes of DOM Element in JavaScript","date":"June 20, 2020","summary":"Learn how to add remove, toggle , check classes of DOM element in JavaScript","timeToRead":2,"path":"/dom-classList"}},{"node":{"id":"de74d2ade34f6eb140cf9a0a5f26c724","title":"Inserting elements in JavaScript Array","date":"June 20, 2020","summary":"Learn how to insert an element at specific index of an element","timeToRead":2,"path":"/array-insert"}},{"node":{"id":"c426776eff9011334ddf6db302d42114","title":"Generate ASCII art from the image","date":"June 6, 2020","summary":"Learn how to Generate ASCII art from the image using Python","timeToRead":2,"path":"/python-ascii-generator"}},{"node":{"id":"acadef115351377be55d221a8d8e35eb","title":"Add confirm box before user leave your page","date":"June 6, 2020","summary":"Learn How to display a confirm  box on closing a tab, using JavaScript","timeToRead":1,"path":"/js-beforeunload"}},{"node":{"id":"1cc1e6650a0b8a5ecb55c2708796abcd","title":"Remove Un-Tracked files in Git","date":"May 30, 2020","summary":"Learn Different ways to remove Untracked files in JavaScript","timeToRead":1,"path":"/git-untracked"}},{"node":{"id":"9ea0971b0b77afdeed2f899373bec67e","title":"Add new columns to table in PostgreSQL","date":"May 29, 2020","summary":"Learn how to add new columns to the table in PostgreSQL.","timeToRead":1,"path":"/add-column-postgreSQL"}},{"node":{"id":"2ae661b7e73327c0c070e4b27686a39d","title":"3 Way to use Array Slice","date":"May 29, 2020","summary":"Three ways to use Array slice method in JavaScript","timeToRead":2,"path":"/array-slice-methods"}},{"node":{"id":"5304b6d406d431c6cf8d05dc1d550329","title":"Creating Browser Notification in JavaScript","date":"May 29, 2020","summary":"Learn how to create browser notification in JavaScript.","timeToRead":2,"path":"/js-notification"}},{"node":{"id":"d404ef29d7afa4b1100d24bc0dfdf9b4","title":"Replace String Concatenation using Template Literals in JavaScript","date":"May 28, 2020","summary":"Template Literals allows you to embed javascript expression inside the string and call functions using Tagged template literal","timeToRead":2,"path":"/template-literal"}}]}},"context":{}}